\relax 
\@writefile{toc}{\contentsline {section}{\numberline {1}Overview}{1}}
\@writefile{toc}{\contentsline {section}{\numberline {2}File Format}{1}}
\@writefile{toc}{\contentsline {section}{\numberline {3}Notes on Attributes}{2}}
\@writefile{toc}{\contentsline {subsection}{\numberline {3.1}\textsf  {\textbf  {attATTACHMENT}} (\textsf  {\textbf  {0x9005}})}{2}}
\@writefile{toc}{\contentsline {section}{\numberline {4}Data Structures}{2}}
\@writefile{toc}{\contentsline {subsection}{\numberline {4.1}\textsf  {\textbf  {date}}}{2}}
\@writefile{toc}{\contentsline {subsection}{\numberline {4.2}\textsf  {\textbf  {RENDDATA}}}{2}}
